[
  {
    "id": 5716,
    "date": "2019-06-25T10:13:53",
    "date_gmt": "2019-06-25T17:13:53",
    "guid": {
      "rendered": "https://wwseadev.wpengine.com/?post_type=ww_video&#038;p=5716"
    },
    "modified": "2019-06-25T12:34:28",
    "modified_gmt": "2019-06-25T19:34:28",
    "slug": "michael-schultheis-chasing-the-moon",
    "status": "publish",
    "type": "ww_video",
    "link": "https://wwseadev.wpengine.com/videos/michael-schultheis-chasing-the-moon/",
    "title": { "rendered": "Michael Schultheis &#8211; Chasing the Moon" },
    "content": {
      "rendered": "<h4>Painter <a href=\"https://wwseadev.wpengine.com/artists/michael-schultheis/\">Michael Schultheis</a>\u00a0 featured in a mini-series, &#8216;Chasing the Moon,&#8217; which focuses on local and national perspectives of space exploration as part of PBS&#8217;s ongoing series. Airing locally and nationally through July, 2019. Video by Charles Costanza.</h4>\n<p><iframe title=\"CHASING THE MOON BEGINS AT HOME\" src=\"https://player.vimeo.com/video/335522949?dnt=1&#038;app_id=122963\" width=\"640\" height=\"360\"  allow=\"autoplay; fullscreen\" allowfullscreen></iframe></p>\n<p>&nbsp;</p>\n",
      "protected": false
    },
    "featured_media": 0,
    "menu_order": 0,
    "template": "",
    "meta": [],
    "categories": [],
    "tags": [],
    "acf": { "ww_video_embed": "https://vimeo.com/335522949" },
    "_links": {
      "self": [
        { "href": "https://wwseadev.wpengine.com/wp-json/wp/v2/videos/5716" }
      ],
      "collection": [
        { "href": "https://wwseadev.wpengine.com/wp-json/wp/v2/videos" }
      ],
      "about": [
        { "href": "https://wwseadev.wpengine.com/wp-json/wp/v2/types/ww_video" }
      ],
      "wp:attachment": [
        {
          "href": "https://wwseadev.wpengine.com/wp-json/wp/v2/media?parent=5716"
        }
      ],
      "wp:term": [
        {
          "taxonomy": "category",
          "embeddable": true,
          "href": "https://wwseadev.wpengine.com/wp-json/wp/v2/categories?post=5716"
        },
        {
          "taxonomy": "post_tag",
          "embeddable": true,
          "href": "https://wwseadev.wpengine.com/wp-json/wp/v2/tags?post=5716"
        }
      ],
      "curies": [
        { "name": "wp", "href": "https://api.w.org/{rel}", "templated": true }
      ]
    }
  },
  {
    "id": 5637,
    "date": "2019-06-04T16:26:15",
    "date_gmt": "2019-06-04T23:26:15",
    "guid": {
      "rendered": "https://wwseadev.wpengine.com/?post_type=ww_video&#038;p=5637"
    },
    "modified": "2019-06-25T10:15:50",
    "modified_gmt": "2019-06-25T17:15:50",
    "slug": "claire-partington-at-sam",
    "status": "publish",
    "type": "ww_video",
    "link": "https://wwseadev.wpengine.com/videos/claire-partington-at-sam/",
    "title": { "rendered": "Claire Partington at SAM" },
    "content": { "rendered": "", "protected": false },
    "featured_media": 0,
    "menu_order": 0,
    "template": "",
    "meta": [],
    "categories": [],
    "tags": [],
    "acf": { "ww_video_embed": "https://youtu.be/bSnTkA8nc10" },
    "_links": {
      "self": [
        { "href": "https://wwseadev.wpengine.com/wp-json/wp/v2/videos/5637" }
      ],
      "collection": [
        { "href": "https://wwseadev.wpengine.com/wp-json/wp/v2/videos" }
      ],
      "about": [
        { "href": "https://wwseadev.wpengine.com/wp-json/wp/v2/types/ww_video" }
      ],
      "wp:attachment": [
        {
          "href": "https://wwseadev.wpengine.com/wp-json/wp/v2/media?parent=5637"
        }
      ],
      "wp:term": [
        {
          "taxonomy": "category",
          "embeddable": true,
          "href": "https://wwseadev.wpengine.com/wp-json/wp/v2/categories?post=5637"
        },
        {
          "taxonomy": "post_tag",
          "embeddable": true,
          "href": "https://wwseadev.wpengine.com/wp-json/wp/v2/tags?post=5637"
        }
      ],
      "curies": [
        { "name": "wp", "href": "https://api.w.org/{rel}", "templated": true }
      ]
    }
  },
  {
    "id": 5630,
    "date": "2019-06-01T16:39:44",
    "date_gmt": "2019-06-01T23:39:44",
    "guid": {
      "rendered": "https://wwseadev.wpengine.com/?post_type=ww_video&#038;p=5630"
    },
    "modified": "2019-06-06T16:15:48",
    "modified_gmt": "2019-06-06T23:15:48",
    "slug": "gronquist-the-void",
    "status": "publish",
    "type": "ww_video",
    "link": "https://wwseadev.wpengine.com/videos/gronquist-the-void/",
    "title": { "rendered": "Gronquist &#8211; The Void" },
    "content": { "rendered": "", "protected": false },
    "featured_media": 0,
    "menu_order": 0,
    "template": "",
    "meta": [],
    "categories": [],
    "tags": [],
    "acf": { "ww_video_embed": "https://vimeo.com/340779134" },
    "_links": {
      "self": [
        { "href": "https://wwseadev.wpengine.com/wp-json/wp/v2/videos/5630" }
      ],
      "collection": [
        { "href": "https://wwseadev.wpengine.com/wp-json/wp/v2/videos" }
      ],
      "about": [
        { "href": "https://wwseadev.wpengine.com/wp-json/wp/v2/types/ww_video" }
      ],
      "wp:attachment": [
        {
          "href": "https://wwseadev.wpengine.com/wp-json/wp/v2/media?parent=5630"
        }
      ],
      "wp:term": [
        {
          "taxonomy": "category",
          "embeddable": true,
          "href": "https://wwseadev.wpengine.com/wp-json/wp/v2/categories?post=5630"
        },
        {
          "taxonomy": "post_tag",
          "embeddable": true,
          "href": "https://wwseadev.wpengine.com/wp-json/wp/v2/tags?post=5630"
        }
      ],
      "curies": [
        { "name": "wp", "href": "https://api.w.org/{rel}", "templated": true }
      ]
    }
  },
  {
    "id": 5237,
    "date": "2019-01-31T12:15:34",
    "date_gmt": "2019-01-31T20:15:34",
    "guid": {
      "rendered": "https://wwseadev.wpengine.com/?post_type=ww_video&#038;p=5237"
    },
    "modified": "2019-01-31T12:15:34",
    "modified_gmt": "2019-01-31T20:15:34",
    "slug": "maja-petric-we-are-all-made-of-light-madart-studio",
    "status": "publish",
    "type": "ww_video",
    "link": "https://wwseadev.wpengine.com/videos/maja-petric-we-are-all-made-of-light-madart-studio/",
    "title": {
      "rendered": "Maja Petric &#8211; We Are All Made of Light, MadArt Studio"
    },
    "content": { "rendered": "", "protected": false },
    "featured_media": 0,
    "menu_order": 0,
    "template": "",
    "meta": [],
    "categories": [],
    "tags": [],
    "acf": { "ww_video_embed": "https://vimeo.com/313413541" },
    "_links": {
      "self": [
        { "href": "https://wwseadev.wpengine.com/wp-json/wp/v2/videos/5237" }
      ],
      "collection": [
        { "href": "https://wwseadev.wpengine.com/wp-json/wp/v2/videos" }
      ],
      "about": [
        { "href": "https://wwseadev.wpengine.com/wp-json/wp/v2/types/ww_video" }
      ],
      "wp:attachment": [
        {
          "href": "https://wwseadev.wpengine.com/wp-json/wp/v2/media?parent=5237"
        }
      ],
      "wp:term": [
        {
          "taxonomy": "category",
          "embeddable": true,
          "href": "https://wwseadev.wpengine.com/wp-json/wp/v2/categories?post=5237"
        },
        {
          "taxonomy": "post_tag",
          "embeddable": true,
          "href": "https://wwseadev.wpengine.com/wp-json/wp/v2/tags?post=5237"
        }
      ],
      "curies": [
        { "name": "wp", "href": "https://api.w.org/{rel}", "templated": true }
      ]
    }
  },
  {
    "id": 4972,
    "date": "2018-10-27T12:46:29",
    "date_gmt": "2018-10-27T19:46:29",
    "guid": {
      "rendered": "https://wwseadev.wpengine.com/?post_type=ww_video&#038;p=4972"
    },
    "modified": "2018-10-27T12:46:29",
    "modified_gmt": "2018-10-27T19:46:29",
    "slug": "betsy-eby-talks-at-the-academy",
    "status": "publish",
    "type": "ww_video",
    "link": "https://wwseadev.wpengine.com/videos/betsy-eby-talks-at-the-academy/",
    "title": { "rendered": "Betsy Eby &#8211; Talks at the Academy" },
    "content": { "rendered": "", "protected": false },
    "featured_media": 0,
    "menu_order": 0,
    "template": "",
    "meta": [],
    "categories": [],
    "tags": [],
    "acf": { "ww_video_embed": "https://vimeo.com/296109470" },
    "_links": {
      "self": [
        { "href": "https://wwseadev.wpengine.com/wp-json/wp/v2/videos/4972" }
      ],
      "collection": [
        { "href": "https://wwseadev.wpengine.com/wp-json/wp/v2/videos" }
      ],
      "about": [
        { "href": "https://wwseadev.wpengine.com/wp-json/wp/v2/types/ww_video" }
      ],
      "wp:attachment": [
        {
          "href": "https://wwseadev.wpengine.com/wp-json/wp/v2/media?parent=4972"
        }
      ],
      "wp:term": [
        {
          "taxonomy": "category",
          "embeddable": true,
          "href": "https://wwseadev.wpengine.com/wp-json/wp/v2/categories?post=4972"
        },
        {
          "taxonomy": "post_tag",
          "embeddable": true,
          "href": "https://wwseadev.wpengine.com/wp-json/wp/v2/tags?post=4972"
        }
      ],
      "curies": [
        { "name": "wp", "href": "https://api.w.org/{rel}", "templated": true }
      ]
    }
  },
  {
    "id": 4892,
    "date": "2018-09-19T10:03:57",
    "date_gmt": "2018-09-19T17:03:57",
    "guid": {
      "rendered": "https://wwseadev.wpengine.com/?post_type=ww_video&#038;p=4892"
    },
    "modified": "2018-09-19T10:03:57",
    "modified_gmt": "2018-09-19T17:03:57",
    "slug": "michael-schultheis-venn-pirouettes-2018",
    "status": "publish",
    "type": "ww_video",
    "link": "https://wwseadev.wpengine.com/videos/michael-schultheis-venn-pirouettes-2018/",
    "title": { "rendered": "Michael Schultheis &#8211; Venn Pirouettes, 2018" },
    "content": { "rendered": "", "protected": false },
    "featured_media": 0,
    "menu_order": 0,
    "template": "",
    "meta": [],
    "categories": [],
    "tags": [],
    "acf": { "ww_video_embed": "https://vimeo.com/290729279" },
    "_links": {
      "self": [
        { "href": "https://wwseadev.wpengine.com/wp-json/wp/v2/videos/4892" }
      ],
      "collection": [
        { "href": "https://wwseadev.wpengine.com/wp-json/wp/v2/videos" }
      ],
      "about": [
        { "href": "https://wwseadev.wpengine.com/wp-json/wp/v2/types/ww_video" }
      ],
      "wp:attachment": [
        {
          "href": "https://wwseadev.wpengine.com/wp-json/wp/v2/media?parent=4892"
        }
      ],
      "wp:term": [
        {
          "taxonomy": "category",
          "embeddable": true,
          "href": "https://wwseadev.wpengine.com/wp-json/wp/v2/categories?post=4892"
        },
        {
          "taxonomy": "post_tag",
          "embeddable": true,
          "href": "https://wwseadev.wpengine.com/wp-json/wp/v2/tags?post=4892"
        }
      ],
      "curies": [
        { "name": "wp", "href": "https://api.w.org/{rel}", "templated": true }
      ]
    }
  },
  {
    "id": 4357,
    "date": "2018-05-09T16:01:00",
    "date_gmt": "2018-05-09T23:01:00",
    "guid": {
      "rendered": "https://wwseadev.wpengine.com/?post_type=ww_video&#038;p=4357"
    },
    "modified": "2018-05-09T16:01:00",
    "modified_gmt": "2018-05-09T23:01:00",
    "slug": "the-other-worldly-art-of-kim-keever-by-tola-brennan",
    "status": "publish",
    "type": "ww_video",
    "link": "https://wwseadev.wpengine.com/videos/the-other-worldly-art-of-kim-keever-by-tola-brennan/",
    "title": {
      "rendered": "The Other Worldly Art of Kim Keever &#8211; by Tola Brennan"
    },
    "content": { "rendered": "", "protected": false },
    "featured_media": 0,
    "menu_order": 0,
    "template": "",
    "meta": [],
    "categories": [],
    "tags": [],
    "acf": { "ww_video_embed": "https://www.youtube.com/watch?v=WMatFko0Q1U" },
    "_links": {
      "self": [
        { "href": "https://wwseadev.wpengine.com/wp-json/wp/v2/videos/4357" }
      ],
      "collection": [
        { "href": "https://wwseadev.wpengine.com/wp-json/wp/v2/videos" }
      ],
      "about": [
        { "href": "https://wwseadev.wpengine.com/wp-json/wp/v2/types/ww_video" }
      ],
      "wp:attachment": [
        {
          "href": "https://wwseadev.wpengine.com/wp-json/wp/v2/media?parent=4357"
        }
      ],
      "wp:term": [
        {
          "taxonomy": "category",
          "embeddable": true,
          "href": "https://wwseadev.wpengine.com/wp-json/wp/v2/categories?post=4357"
        },
        {
          "taxonomy": "post_tag",
          "embeddable": true,
          "href": "https://wwseadev.wpengine.com/wp-json/wp/v2/tags?post=4357"
        }
      ],
      "curies": [
        { "name": "wp", "href": "https://api.w.org/{rel}", "templated": true }
      ]
    }
  },
  {
    "id": 4332,
    "date": "2018-05-04T12:32:03",
    "date_gmt": "2018-05-04T19:32:03",
    "guid": {
      "rendered": "https://wwseadev.wpengine.com/?post_type=ww_video&#038;p=4332"
    },
    "modified": "2018-09-19T10:11:30",
    "modified_gmt": "2018-09-19T17:11:30",
    "slug": "deb-achak-culture-and-sea-2018",
    "status": "publish",
    "type": "ww_video",
    "link": "https://wwseadev.wpengine.com/videos/deb-achak-culture-and-sea-2018/",
    "title": { "rendered": "Deb Achak &#8211; Culture and Sea, 2018" },
    "content": { "rendered": "", "protected": false },
    "featured_media": 0,
    "menu_order": 0,
    "template": "",
    "meta": [],
    "categories": [],
    "tags": [],
    "acf": { "ww_video_embed": "https://vimeo.com/274360513" },
    "_links": {
      "self": [
        { "href": "https://wwseadev.wpengine.com/wp-json/wp/v2/videos/4332" }
      ],
      "collection": [
        { "href": "https://wwseadev.wpengine.com/wp-json/wp/v2/videos" }
      ],
      "about": [
        { "href": "https://wwseadev.wpengine.com/wp-json/wp/v2/types/ww_video" }
      ],
      "wp:attachment": [
        {
          "href": "https://wwseadev.wpengine.com/wp-json/wp/v2/media?parent=4332"
        }
      ],
      "wp:term": [
        {
          "taxonomy": "category",
          "embeddable": true,
          "href": "https://wwseadev.wpengine.com/wp-json/wp/v2/categories?post=4332"
        },
        {
          "taxonomy": "post_tag",
          "embeddable": true,
          "href": "https://wwseadev.wpengine.com/wp-json/wp/v2/tags?post=4332"
        }
      ],
      "curies": [
        { "name": "wp", "href": "https://api.w.org/{rel}", "templated": true }
      ]
    }
  },
  {
    "id": 4318,
    "date": "2018-05-03T10:47:48",
    "date_gmt": "2018-05-03T17:47:48",
    "guid": {
      "rendered": "https://wwseadev.wpengine.com/?post_type=ww_video&#038;p=4318"
    },
    "modified": "2018-05-03T10:47:48",
    "modified_gmt": "2018-05-03T17:47:48",
    "slug": "deb-achak-on-king-5-news-2018",
    "status": "publish",
    "type": "ww_video",
    "link": "https://wwseadev.wpengine.com/videos/deb-achak-on-king-5-news-2018/",
    "title": { "rendered": "Deb Achak on King 5 News, 2018" },
    "content": { "rendered": "", "protected": false },
    "featured_media": 0,
    "menu_order": 0,
    "template": "",
    "meta": [],
    "categories": [],
    "tags": [],
    "acf": {
      "ww_video_embed": "https://www.king5.com/article/entertainment/television/programs/evening/west-seattle-artist-sees-water-in-a-whole-new-light/281-548227292"
    },
    "_links": {
      "self": [
        { "href": "https://wwseadev.wpengine.com/wp-json/wp/v2/videos/4318" }
      ],
      "collection": [
        { "href": "https://wwseadev.wpengine.com/wp-json/wp/v2/videos" }
      ],
      "about": [
        { "href": "https://wwseadev.wpengine.com/wp-json/wp/v2/types/ww_video" }
      ],
      "wp:attachment": [
        {
          "href": "https://wwseadev.wpengine.com/wp-json/wp/v2/media?parent=4318"
        }
      ],
      "wp:term": [
        {
          "taxonomy": "category",
          "embeddable": true,
          "href": "https://wwseadev.wpengine.com/wp-json/wp/v2/categories?post=4318"
        },
        {
          "taxonomy": "post_tag",
          "embeddable": true,
          "href": "https://wwseadev.wpengine.com/wp-json/wp/v2/tags?post=4318"
        }
      ],
      "curies": [
        { "name": "wp", "href": "https://api.w.org/{rel}", "templated": true }
      ]
    }
  },
  {
    "id": 4301,
    "date": "2018-04-28T14:09:33",
    "date_gmt": "2018-04-28T21:09:33",
    "guid": {
      "rendered": "https://wwseadev.wpengine.com/?post_type=ww_video&#038;p=4301"
    },
    "modified": "2018-06-13T12:27:56",
    "modified_gmt": "2018-06-13T19:27:56",
    "slug": "maja-petric-lost-skies-series-and-aieye",
    "status": "publish",
    "type": "ww_video",
    "link": "https://wwseadev.wpengine.com/videos/maja-petric-lost-skies-series-and-aieye/",
    "title": { "rendered": "Maja Petric, Lost Skies series and AIEYE" },
    "content": { "rendered": "", "protected": false },
    "featured_media": 0,
    "menu_order": 0,
    "template": "",
    "meta": [],
    "categories": [],
    "tags": [],
    "acf": { "ww_video_embed": "https://vimeo.com/267041500" },
    "_links": {
      "self": [
        { "href": "https://wwseadev.wpengine.com/wp-json/wp/v2/videos/4301" }
      ],
      "collection": [
        { "href": "https://wwseadev.wpengine.com/wp-json/wp/v2/videos" }
      ],
      "about": [
        { "href": "https://wwseadev.wpengine.com/wp-json/wp/v2/types/ww_video" }
      ],
      "wp:attachment": [
        {
          "href": "https://wwseadev.wpengine.com/wp-json/wp/v2/media?parent=4301"
        }
      ],
      "wp:term": [
        {
          "taxonomy": "category",
          "embeddable": true,
          "href": "https://wwseadev.wpengine.com/wp-json/wp/v2/categories?post=4301"
        },
        {
          "taxonomy": "post_tag",
          "embeddable": true,
          "href": "https://wwseadev.wpengine.com/wp-json/wp/v2/tags?post=4301"
        }
      ],
      "curies": [
        { "name": "wp", "href": "https://api.w.org/{rel}", "templated": true }
      ]
    }
  }
]
